name,patientID,SubmittingCentre
uh_patientid1_sopinstanceid.png,patientid1,University Hospital
uh_patientid2_sopinstanceid.png,patientid2,University Hospital
uh_patientid3_sopinstanceid.png,patientid3,University Hospital
uh_patientid3_sopinstanceid2.png,patientid4,University Hospital
uh_patientid4_sopinstanceid.png,patientid5,University Hospital